{
    "KPlugin": {
        "Authors": [
            {
                "Email": "sebas@kde.org",
                "Name": "Sebastian Kügler",
                "Name[ca@valencia]": "Sebastian Kügler",
                "Name[ca]": "Sebastian Kügler",
                "Name[es]": "Sebastian Kügler",
                "Name[eu]": "Sebastian Kügler",
                "Name[fr]": "Sebastian Kügler",
                "Name[nl]": "Sebastian Kügler",
                "Name[sl]": "Sebastian Kügler",
                "Name[tr]": "Sebastian Kügler",
                "Name[uk]": "Sebastian Kügler",
                "Name[x-test]": "xxSebastian Küglerxx"
            }
        ],
        "Category": "Graphics",
        "Description": "Futzing with Visual Effects",
        "Description[ca@valencia]": "Jugant amb els efectes visuals",
        "Description[ca]": "Jugant amb els efectes visuals",
        "Description[es]": "Jugando con efectos visuales",
        "Description[eu]": "Denbora xahutu ikus-efektuekin",
        "Description[nl]": "Tijd verspillen met visuele effecten",
        "Description[sl]": "Preigravanje z vizualnimi učinki",
        "Description[tr]": "Görsel Efektlerle Oynaşma",
        "Description[uk]": "Маніпулювання візуальними ефектами",
        "Description[x-test]": "xxFutzing with Visual Effectsxx",
        "Icon": "plasma",
        "Id": "org.kde.example.testshaders",
        "License": "GPLv2+",
        "Name": "Shader Test",
        "Name[ca@valencia]": "Prova de «shader»",
        "Name[ca]": "Prova de «shader»",
        "Name[es]": "Prueba de sombreado",
        "Name[eu]": "Itzaldura-proba",
        "Name[fr]": "Test de shader",
        "Name[nl]": "Test van schaduw",
        "Name[sl]": "Preizkus osenčevalnika",
        "Name[tr]": "Gölgelendirici Sınaması",
        "Name[uk]": "Тестування підпрограм побудови тіней",
        "Name[x-test]": "xxShader Testxx",
        "ServiceTypes": [
            "Plasma/Applet"
        ],
        "Version": "",
        "Website": ""
    },
    "Keywords": "",
    "X-KDE-ParentApp": "",
    "X-Plasma-API": "declarativeappletscript",
    "X-Plasma-MainScript": "ui/testshaderapplet.qml"
}
