{
    "KPlugin": {
        "Authors": [
            {
                "Email": "mart@kde.org",
                "Name": "Marco Martin",
                "Name[ca@valencia]": "Marco Martin",
                "Name[ca]": "Marco Martin",
                "Name[es]": "Marco Martin",
                "Name[eu]": "Marco Martin",
                "Name[fr]": "Marco Martin",
                "Name[nl]": "Marco Martin",
                "Name[sl]": "Marco Martin",
                "Name[tr]": "Marco Martin",
                "Name[uk]": "Marco Martin",
                "Name[x-test]": "xxMarco Martinxx"
            }
        ],
        "Category": "Miscellaneous",
        "Description": "",
        "Icon": "package_toys",
        "Id": "org.kde.example.helloworld",
        "License": "GPL",
        "Name": "hello world",
        "Name[ca@valencia]": "hola món",
        "Name[ca]": "hola món",
        "Name[es]": "hola mundo",
        "Name[eu]": "kaixo mundua",
        "Name[fr]": "Bonjour à tout le monde",
        "Name[nl]": "hallo wereld",
        "Name[sl]": "pozdravljen svet",
        "Name[tr]": "merhaba dünya",
        "Name[uk]": "Привіт, світе",
        "Name[x-test]": "xxhello worldxx",
        "ServiceTypes": [
            "Plasma/Applet"
        ],
        "Version": "",
        "Website": ""
    },
    "Keywords": "",
    "X-KDE-ParentApp": "",
    "X-Plasma-API": "declarativeappletscript",
    "X-Plasma-MainScript": "ui/main.qml"
}
