{
    "KPlugin": {
        "Authors": [
            {
                "Email": "sebas@kde.org",
                "Name": "Sebastian Kügler",
                "Name[ca@valencia]": "Sebastian Kügler",
                "Name[ca]": "Sebastian Kügler",
                "Name[es]": "Sebastian Kügler",
                "Name[eu]": "Sebastian Kügler",
                "Name[fr]": "Sebastian Kügler",
                "Name[nl]": "Sebastian Kügler",
                "Name[sl]": "Sebastian Kügler",
                "Name[tr]": "Sebastian Kügler",
                "Name[uk]": "Sebastian Kügler",
                "Name[x-test]": "xxSebastian Küglerxx"
            }
        ],
        "Category": "Development Tools",
        "Icon": "preferences-desktop-appearance",
        "Id": "org.kde.example.testtheme",
        "License": "GPLv2+",
        "Name": "Theme Test",
        "Name[ca@valencia]": "Prova de tema",
        "Name[ca]": "Prova de tema",
        "Name[es]": "Prueba de tema",
        "Name[eu]": "Gai-proba",
        "Name[fr]": "Test de thème",
        "Name[nl]": "Test van thema",
        "Name[sl]": "Preizkus teme",
        "Name[tr]": "Tema Sınaması",
        "Name[uk]": "Тестування теми",
        "Name[x-test]": "xxTheme Testxx",
        "ServiceTypes": [
            "Plasma/Applet"
        ],
        "Version": "",
        "Website": ""
    },
    "Keywords": "",
    "X-KDE-ParentApp": "",
    "X-Plasma-API": "declarativeappletscript",
    "X-Plasma-MainScript": "ui/testtheme.qml"
}
