{
    "KPlugin": {
        "Authors": [
            {
                "Email": "mart@kde.org",
                "Name": "Marco Martin",
                "Name[ca@valencia]": "Marco Martin",
                "Name[ca]": "Marco Martin",
                "Name[es]": "Marco Martin",
                "Name[eu]": "Marco Martin",
                "Name[fr]": "Marco Martin",
                "Name[nl]": "Marco Martin",
                "Name[sl]": "Marco Martin",
                "Name[tr]": "Marco Martin",
                "Name[uk]": "Marco Martin",
                "Name[x-test]": "xxMarco Martinxx"
            }
        ],
        "Category": "Windows and Tasks",
        "Description": "Example showing how to display window thumbnails",
        "Description[ca@valencia]": "Exemple que mostra com visualitzar miniatures de les finestres",
        "Description[ca]": "Exemple que mostra com visualitzar miniatures de les finestres",
        "Description[es]": "Ejemplo que enseña cómo mostrar miniaturas de ventanas",
        "Description[eu]": "Leihoen koadro-txikiak nola azaldu erakusten duen adibidea",
        "Description[nl]": "Voorbeeld van hoe miniaturen van vensters te tonen",
        "Description[sl]": "Primer, ki prikazuje kako prikazati predogledne sličice okna",
        "Description[tr]": "Pencere küçük görsellerinin nice gösterileceğini anlatan örnek",
        "Description[uk]": "Приклад, який демонструє показ мініатюр вікон",
        "Description[x-test]": "xxExample showing how to display window thumbnailsxx",
        "Icon": "preferences-system-windows",
        "Id": "org.kde.example.windowthumbnails",
        "License": "GPL",
        "Name": "Example window thumbnails list",
        "Name[ca@valencia]": "Exemple de llista de miniatures de les finestres",
        "Name[ca]": "Exemple de llista de miniatures de les finestres",
        "Name[es]": "Ejemplo de lista de miniaturas de ventanas",
        "Name[eu]": "Adibide leiho koadro-txikien zerrenda",
        "Name[fr]": "Exemple de liste de vignettes de fenêtres",
        "Name[nl]": "Voorbeeld van lijst met miniaturen van vensters",
        "Name[sl]": "Seznam predoglednih sličic okna primera",
        "Name[tr]": "Örnek pencere küçük görseller listesi",
        "Name[uk]": "Приклад списку мініатюр вікон",
        "Name[x-test]": "xxExample window thumbnails listxx",
        "ServiceTypes": [
            "Plasma/Applet"
        ],
        "Version": "",
        "Website": ""
    },
    "Keywords": "",
    "X-KDE-ParentApp": "",
    "X-Plasma-API": "declarativeappletscript",
    "X-Plasma-MainScript": "ui/main.qml"
}
