{
    "KPlugin": {
        "Authors": [
            {
                "Email": "menard@kde.org",
                "Name": "Alexis Menard",
                "Name[ca@valencia]": "Alexis Menard",
                "Name[ca]": "Alexis Menard",
                "Name[es]": "Alexis Menard",
                "Name[eu]": "Alexis Menard",
                "Name[fr]": "Alexis Menard",
                "Name[nl]": "Alexis Menard",
                "Name[sl]": "Alexis Menard",
                "Name[tr]": "Alexis Menard",
                "Name[uk]": "Alexis Menard",
                "Name[x-test]": "xxAlexis Menardxx"
            }
        ],
        "Category": "Examples",
        "Description": "Native Plasma widget written in QML and JavaScript",
        "Description[ca@valencia]": "Giny nadiu de Plasma escrit en QML i JavaScript",
        "Description[ca]": "Giny nadiu del Plasma escrit en QML i JavaScript",
        "Description[es]": "Widget nativo de Plasma escrito en QML y JavaScript",
        "Description[eu]": "Jatorriz Plasmako trepeta QML eta JabaScript-ekin idatzia",
        "Description[nl]": "Hier thuishorend Plasma-widget geschreven in QML en JavaScript",
        "Description[sl]": "Domorodni Plasmin gradnik napisan v QML in JavaScriptu",
        "Description[tr]": "QML ve JavaScript ile yazılmış yerel Plasma araç takımı",
        "Description[uk]": "Віджет Плазми, написаний на QML та JavaScript",
        "Description[x-test]": "xxNative Plasma widget written in QML and JavaScriptxx",
        "EnabledByDefault": true,
        "Icon": "text-x-script",
        "Id": "qmlscript",
        "License": "LGPL",
        "Name": "Declarative widget",
        "Name[ca@valencia]": "Giny declaratiu",
        "Name[ca]": "Giny declaratiu",
        "Name[es]": "Widget declarativo",
        "Name[eu]": "Trepeta deklaratzailea",
        "Name[fr]": "Composant graphique déclaratif",
        "Name[nl]": "Widget voor declaratie",
        "Name[sl]": "Deklarativni gradnik",
        "Name[tr]": "Bildirimsel araç takımları",
        "Name[uk]": "Декларативний віджет",
        "Name[x-test]": "xxDeclarative widgetxx",
        "ServiceTypes": [
            "Plasma/ScriptEngine"
        ],
        "Version": "0.1"
    },
    "X-EngineName": "declarativeappletscript",
    "X-Plasma-API": "declarativeappletscript",
    "X-Plasma-ComponentTypes": [
        "Applet"
    ]
}
