{
    "KPlugin": {
        "Authors": [
            {
                "Email": "aseigo@kde.org",
                "Name": "Aaron Seigo",
                "Name[ar]": "Aaron Seigo",
                "Name[az]": "Aaron Seigo",
                "Name[ca@valencia]": "Aaron Seigo",
                "Name[ca]": "Aaron Seigo",
                "Name[cs]": "Aaron Seigo",
                "Name[da]": "Aaron Seigo",
                "Name[de]": "Aaron Seigo",
                "Name[el]": "Aaron Seigo",
                "Name[en_GB]": "Aaron Seigo",
                "Name[es]": "Aaron Seigo",
                "Name[et]": "Aaron Seigo",
                "Name[eu]": "Aaron Seigo",
                "Name[fi]": "Aaron Seigo",
                "Name[fr]": "Aaron Seigo",
                "Name[gl]": "Aaron Seigo",
                "Name[hu]": "Aaron Seigo",
                "Name[ia]": "Aaron Seigo",
                "Name[id]": "Aaron Seigo",
                "Name[it]": "Aaron Seigo",
                "Name[ko]": "Aaron Seigo",
                "Name[lt]": "Aaron Seigo",
                "Name[nl]": "Aaron Seigo",
                "Name[nn]": "Aaron Seigo",
                "Name[pl]": "Aaron Seigo",
                "Name[pt]": "Aaron Seigo",
                "Name[pt_BR]": "Aaron Seigo",
                "Name[ro]": "Aaron Seigo",
                "Name[ru]": "Aaron Seigo",
                "Name[sk]": "Aaron Seigo",
                "Name[sl]": "Aaron Seigo",
                "Name[sr@ijekavian]": "Арон Џ. Сајго",
                "Name[sr@ijekavianlatin]": "Aron Dž. Sajgo",
                "Name[sr@latin]": "Aron Dž. Sajgo",
                "Name[sr]": "Арон Џ. Сајго",
                "Name[sv]": "Aaron Seigo",
                "Name[tg]": "Аарон Сейго (Aaron Seigo)",
                "Name[tr]": "Aaron Seigo",
                "Name[uk]": "Aaron Seigo",
                "Name[vi]": "Aaron Seigo",
                "Name[x-test]": "xxAaron Seigoxx",
                "Name[zh_CN]": "Aaron Seigo",
                "Name[zh_TW]": "Aaron Seigo"
            }
        ],
        "Category": "Examples",
        "Description": "A DataEngine example showing how to respond to requests for source creation and updates",
        "Description[ca@valencia]": "Un exemple de «DataEngine» que mostra com respondre a peticions de creació i actualització de les fonts",
        "Description[ca]": "Un exemple de «DataEngine» que mostra com respondre a peticions de creació i actualització de les fonts",
        "Description[es]": "Un ejemplo de motor de datos que muestra cómo responder a peticiones de creación y actualización de fuentes",
        "Description[eu]": "Sorburu sorrera eta eguneratze eskaerei nola erantzun erakusten duen «DataEngine»ren adibide bat",
        "Description[nl]": "Een voorbeeld van een gegevens-engine die toont hoe te antwoorden op verzoeken voor aanmaken van een bron en bijwerken",
        "Description[sl]": "Primer podatkovnega stroja, ki prikazuje kako se odzivati na zahtevke po ustvarjanju vira in osvežitve",
        "Description[tr]": "Kaynak oluşturumu ve güncellemeler için isteklere nice yanıt verileceğini gösteren bir DataEngine örneği",
        "Description[uk]": "Приклад рушія даних, який демонструє способи відповіді на запити щодо створення джерела і оновлень",
        "Description[x-test]": "xxA DataEngine example showing how to respond to requests for source creation and updatesxx",
        "EnabledByDefault": true,
        "Icon": "plasma",
        "Id": "org.kde.examples.sourcesOnRequest",
        "License": "BSD",
        "Name": "Sources On Request",
        "Name[ca@valencia]": "Fonts a demanda",
        "Name[ca]": "Fonts a demanda",
        "Name[es]": "Fuentes bajo demanda",
        "Name[eu]": "Sorburuak eskatu ahala",
        "Name[fr]": "Sources à la demande",
        "Name[nl]": "Bronnen op verzoek",
        "Name[sl]": "Viri na zahtevo",
        "Name[tr]": "İsteğe Bağlı Kaynaklar",
        "Name[uk]": "Джерела за запитом",
        "Name[x-test]": "xxSources On Requestxx",
        "ServiceTypes": [
            "Plasma/DataEngine"
        ],
        "Version": "1.0",
        "Website": "https://plasma.kde.org/"
    }
}
