{
    "KPlugin": {
        "Authors": [
            {
                "Email": "sebas@kde.org",
                "Name": "Sebastian Kügler",
                "Name[ca@valencia]": "Sebastian Kügler",
                "Name[ca]": "Sebastian Kügler",
                "Name[es]": "Sebastian Kügler",
                "Name[eu]": "Sebastian Kügler",
                "Name[fr]": "Sebastian Kügler",
                "Name[nl]": "Sebastian Kügler",
                "Name[sl]": "Sebastian Kügler",
                "Name[tr]": "Sebastian Kügler",
                "Name[uk]": "Sebastian Kügler",
                "Name[x-test]": "xxSebastian Küglerxx"
            }
        ],
        "Category": "Development",
        "Description": "Report a bug in Plasma",
        "Description[ca@valencia]": "Informeu d'un error en Plasma",
        "Description[ca]": "Informa d'un error en el Plasma",
        "Description[es]": "Informar de un fallo en Plasma",
        "Description[eu]": "Bidali Plasmako akats baten berri",
        "Description[fr]": "Signaler un bogue de Plasma",
        "Description[nl]": "Een bug in Plasma rapporteren",
        "Description[sl]": "Poročaj o hrošču v Plasmi",
        "Description[tr]": "Plasma'daki bir hatayı bildirin",
        "Description[uk]": "Повідомити про ваду у Плазмі",
        "Description[x-test]": "xxReport a bug in Plasmaxx",
        "Icon": "kbugbuster",
        "Id": "org.kde.example.bugreport",
        "License": "GPL",
        "Name": "Bug",
        "Name[ca@valencia]": "Error",
        "Name[ca]": "Error",
        "Name[es]": "Fallo",
        "Name[eu]": "Akatsa",
        "Name[fr]": "Bogue",
        "Name[nl]": "Bug",
        "Name[sl]": "Hrošč",
        "Name[tr]": "Hata",
        "Name[uk]": "Вада",
        "Name[x-test]": "xxBugxx",
        "ServiceTypes": [
            "Plasma/Applet"
        ],
        "Version": "",
        "Website": "https://bugs.kde.org"
    },
    "Keywords": "plasma;bugzilla;bug;development;support;",
    "Keywords[az]": "plasma;bugzilla;bug;development;support;səhv;xəta;dəstək;tərtibat;",
    "Keywords[ca@valencia]": "plasma;bugzilla;error;desenvolupament;suport;",
    "Keywords[ca]": "plasma;bugzilla;error;desenvolupament;suport;",
    "Keywords[da]": "plasma;bugzilla;bug;udvikling;støtte;",
    "Keywords[de]": "plasma;bugzilla;Fehler;Entwicklung;Unterstützung;",
    "Keywords[en_GB]": "plasma;bugzilla;bug;development;support;",
    "Keywords[es]": "plasma;bugzilla;fallo;desarrollo;soporte;",
    "Keywords[et]": "plasma;bugzilla;viga;arendus;toetus;veateade;vearaport;",
    "Keywords[eu]": "plasma;bugzilla;akatsa;bug;garapena;euskarria;",
    "Keywords[fi]": "plasma;bugzilla;bug;bugi;vika;virhe;development;kehitys;kehittäminen;support;tuki;",
    "Keywords[fr]": "plasma;bugzilla;bug;développement;gestion;",
    "Keywords[gd]": "plasma;bugzilla;bug;development;support;buga;leasachadh;taic;cobhair;",
    "Keywords[gl]": "plasma;bugzilla;bug;erro;fallo;desenvolvemento;support;soporte;asistencia;asistencia técnica;axuda;",
    "Keywords[hu]": "plasma;bugzilla;hiba;fejlesztés;támogatás;",
    "Keywords[ia]": "plasma;bugzilla;bug;development;support;",
    "Keywords[id]": "plasma;bugzilla;bug;development;support;",
    "Keywords[it]": "plasma;bugzilla;bug;sviluppo;supporto;",
    "Keywords[ko]": "plasma;bugzilla;bug;development;support;버그;개발;지원;",
    "Keywords[lt]": "plasma;bugzilla;klaida;kūrimas;palaikymas;programavimas;strigtis;",
    "Keywords[nb]": "plasma;bugzilla;feil;utvikling;støtte;",
    "Keywords[nl]": "plasma;bugzilla;bug;ontwikkeling;ondersteuning;",
    "Keywords[nn]": "plasma;bugzilla;feil;utvikling;støtte;",
    "Keywords[pl]": "plazma;bugzilla;błąd;rozwój;programowanie;wsparcie;obsługa;",
    "Keywords[pt]": "plasma;bugzilla;erro;desenvolvimento;suporte;",
    "Keywords[pt_BR]": "plasma;bugzilla;erro;bug;desenvolvimento;suporte;",
    "Keywords[ro]": "plasma;bugzilla;bug;development;suport;problemă;",
    "Keywords[ru]": "plasma;bugzilla;bug;development;support;ошибка;сбой;поддержка;разработка;",
    "Keywords[sk]": "plasma;bugzilla;chyba;vývoj;podpora;",
    "Keywords[sl]": "plasma;bugzilla;hrošč;napaka;razvoj;podpora;",
    "Keywords[sr@ijekavian]": "plasma;bugzilla;bug;development;support;Плазма;Бубаждаја;грешка;развој;подршка;",
    "Keywords[sr@ijekavianlatin]": "plasma;bugzilla;bug;development;support;Plasma;Bubaždaja;greška;razvoj;podrška;",
    "Keywords[sr@latin]": "plasma;bugzilla;bug;development;support;Plasma;Bubaždaja;greška;razvoj;podrška;",
    "Keywords[sr]": "plasma;bugzilla;bug;development;support;Плазма;Бубаждаја;грешка;развој;подршка;",
    "Keywords[sv]": "plasma;bugzilla;fel;utveckling;support;",
    "Keywords[ta]": "plasma;bugzilla;bug;development;support;பிளாஸ்மா;பிழை;தவறு;சிக்கல்;ஆதரவு;பிழையறிக்கை;",
    "Keywords[tg]": "plasma;bugzilla;хато;барномарезӣ;дастгирӣ;",
    "Keywords[tr]": "plazma;bugzilla;hata;geliştirme;destek;plasma;",
    "Keywords[uk]": "plasma;bugzilla;bug;development;support;плазма;багзілла;вада;баг;розробка;підтримка;супровід;помилка;",
    "Keywords[vi]": "plasma;bugzilla;bug;development;support;lỗi;phát triển;hỗ trợ;",
    "Keywords[x-test]": "xxplasmaxx;xxbugzillaxx;xxbugxx;xxdevelopmentxx;xxsupportxx;",
    "Keywords[zh_CN]": "plasma;bugzilla;bug;development;support;错误;;程序缺陷;开发;支持;",
    "Keywords[zh_TW]": "plasma;bugzilla;bug;development;support;",
    "X-Plasma-API": "declarativeappletscript",
    "X-Plasma-MainScript": "ui/main.qml"
}
