{
    "KPlugin": {
        "Authors": [
            {
                "Email": "sebas@kde.org",
                "Name": "Sebastian Kügler",
                "Name[ca@valencia]": "Sebastian Kügler",
                "Name[ca]": "Sebastian Kügler",
                "Name[es]": "Sebastian Kügler",
                "Name[eu]": "Sebastian Kügler",
                "Name[fr]": "Sebastian Kügler",
                "Name[nl]": "Sebastian Kügler",
                "Name[sl]": "Sebastian Kügler",
                "Name[tr]": "Sebastian Kügler",
                "Name[uk]": "Sebastian Kügler",
                "Name[x-test]": "xxSebastian Küglerxx"
            }
        ],
        "Category": "Development",
        "Description": "Basic App",
        "Description[ca@valencia]": "Aplicació bàsica",
        "Description[ca]": "Aplicació bàsica",
        "Description[es]": "Aplicación básica",
        "Description[eu]": "Oinarrizko aplikazioa",
        "Description[fr]": "Application de base",
        "Description[nl]": "Basis app",
        "Description[sl]": "Osnovna aplikacija",
        "Description[tr]": "Yalın Uygulama",
        "Description[uk]": "Базова програма",
        "Description[x-test]": "xxBasic Appxx",
        "Icon": "kbugbuster",
        "Id": "org.kde.example.developerguide.basic",
        "License": "LGPLv2+",
        "Name": "Bug",
        "Name[ca@valencia]": "Error",
        "Name[ca]": "Error",
        "Name[es]": "Fallo",
        "Name[eu]": "Akatsa",
        "Name[fr]": "Bogue",
        "Name[nl]": "Bug",
        "Name[sl]": "Hrošč",
        "Name[tr]": "Hata",
        "Name[uk]": "Вада",
        "Name[x-test]": "xxBugxx",
        "ServiceTypes": [
            "KPackage/GenericQML"
        ],
        "Version": "1.0",
        "Website": "https://www.kde.org"
    },
    "X-Plasma-API": "declarativeappletscript",
    "X-Plasma-MainScript": "ui/main.qml"
}
